2018-01-08T18:17:15+00:00 CRITICAL Maximum execution time of 30 seconds exceeded

2018-01-08T20:34:24+00:00 CRITICAL Maximum execution time of 30 seconds exceeded

2018-01-08T20:35:15+00:00 CRITICAL Maximum execution time of 30 seconds exceeded

2018-01-08T20:39:53+00:00 CRITICAL Maximum execution time of 30 seconds exceeded

2018-01-08T20:43:55+00:00 CRITICAL Maximum execution time of 30 seconds exceeded

2018-01-08T21:12:34+00:00 CRITICAL Maximum execution time of 30 seconds exceeded

2018-01-11T17:04:50+00:00 CRITICAL Maximum execution time of 30 seconds exceeded

2018-01-11T19:34:08+00:00 CRITICAL Maximum execution time of 30 seconds exceeded

2018-01-11T20:45:13+00:00 CRITICAL Class 'Yoast_Notification_Center' not found

2018-01-24T17:56:22+00:00 CRITICAL Maximum execution time of 30 seconds exceeded

2018-01-24T17:57:38+00:00 CRITICAL Maximum execution time of 30 seconds exceeded

2018-01-24T18:00:07+00:00 CRITICAL Maximum execution time of 30 seconds exceeded

2018-01-24T21:09:24+00:00 CRITICAL Maximum execution time of 30 seconds exceeded

2018-01-24T21:15:56+00:00 CRITICAL Maximum execution time of 30 seconds exceeded

2018-01-24T21:45:42+00:00 CRITICAL Maximum execution time of 30 seconds exceeded

2018-01-24T21:58:57+00:00 CRITICAL Maximum execution time of 30 seconds exceeded

2018-01-24T22:04:46+00:00 CRITICAL Maximum execution time of 30 seconds exceeded

2018-01-24T22:08:21+00:00 CRITICAL Maximum execution time of 30 seconds exceeded

2018-01-24T22:26:43+00:00 CRITICAL Maximum execution time of 30 seconds exceeded

2018-01-25T15:08:27+00:00 CRITICAL Maximum execution time of 30 seconds exceeded

2018-01-25T16:07:38+00:00 CRITICAL Maximum execution time of 30 seconds exceeded

2018-01-25T20:48:18+00:00 CRITICAL Maximum execution time of 30 seconds exceeded

2018-01-25T20:50:38+00:00 CRITICAL Maximum execution time of 30 seconds exceeded

2018-01-25T21:02:54+00:00 CRITICAL Maximum execution time of 30 seconds exceeded

2018-01-25T21:27:05+00:00 CRITICAL Maximum execution time of 30 seconds exceeded

2018-01-25T21:41:23+00:00 CRITICAL Maximum execution time of 90 seconds exceeded

2018-01-25T22:01:18+00:00 CRITICAL Maximum execution time of 90 seconds exceeded

2018-01-26T15:08:34+00:00 CRITICAL Maximum execution time of 90 seconds exceeded

2018-02-19T20:01:04+00:00 CRITICAL Call to a member function get_product_categories() on a non-object

